<svg xmlns="http://www.w3.org/2000/svg" width="246.426" height="65.061" viewBox="0 0 246.426 65.061">
  <g id="Group_526" data-name="Group 526" transform="translate(13298.715 118.728)">
    <path id="Union_1" data-name="Union 1" d="M96.345,60.893v-.017a2.9,2.9,0,0,1,2.98-2.956,2.946,2.946,0,0,1,2.254.882l-.8.922a2.117,2.117,0,0,0-1.462-.646,1.693,1.693,0,0,0-1.658,1.781v.017a1.7,1.7,0,0,0,1.658,1.8,2.064,2.064,0,0,0,1.5-.67l.8.808a2.921,2.921,0,0,1-2.344,1.021A2.885,2.885,0,0,1,96.345,60.893Zm51.314,2.842L146.435,61.9h-.989v1.831h-1.259V58.019H146.8a2.276,2.276,0,0,1,1.665.579,1.792,1.792,0,0,1,.49,1.306v.017a1.773,1.773,0,0,1-1.226,1.772l1.4,2.042Zm-2.212-2.941h1.274c.613,0,.964-.325.964-.809V59.97c0-.538-.377-.818-.988-.818h-1.25Zm-8.768,2.941V58.018h4.312v1.119h-3.064V60.3h2.7v1.119h-2.7v1.2h3.105v1.119Zm-6,0V59.178h-1.74v-1.16h4.738v1.16h-1.74v4.557Zm-5.8,0L123.648,61.9h-.989v1.831H121.4V58.019h2.614a2.282,2.282,0,0,1,1.667.579,1.8,1.8,0,0,1,.489,1.306v.017a1.774,1.774,0,0,1-1.227,1.772l1.4,2.042Zm-2.212-2.941h1.274c.613,0,.965-.325.965-.809V59.97c0-.538-.377-.818-.989-.818h-1.25Zm-5.493,2.941-.523-1.282h-2.418l-.523,1.282H112.42l2.451-5.758h1.159l2.45,5.758Zm-2.492-2.394H116.2l-.76-1.853Zm-6.433,2.394V61.44h-2.32v2.295h-1.257V58.018h1.257v2.261h2.32V58.018H109.5v5.717Zm92.652-16.578H178.559l1.7-4.669h0l.018-.05h20.987l.863-2.358.508-1.395H185.36a2.523,2.523,0,0,1-.888-.156,2.591,2.591,0,0,1-1.558-3.323l.018-.049.006-.023,2.28-6.26a5.193,5.193,0,0,1,4.885-3.42h22.328l-.032.09h.015l-1.7,4.667H189.717l-1.357,3.734h17.768a2.249,2.249,0,0,1,2.113,3.024l0,.006c-.007.021-.008.041-.017.06L206.885,40.7,205.8,43.693a4.278,4.278,0,0,1-.311.723,5.245,5.245,0,0,1-4.424,2.745Q200.978,47.16,200.894,47.157Zm32.564,0H211.125l1.7-4.669h0l.018-.051h20.988l.659-1.794.71-1.958H217.927a2.555,2.555,0,0,1-.89-.156,2.591,2.591,0,0,1-1.553-3.323l.011-.031c.005-.015.005-.028.01-.041l2.276-6.259a5.2,5.2,0,0,1,4.889-3.421H245l-.032.09h.014l-1.708,4.667H222.286l-1.36,3.731h17.767a2.324,2.324,0,0,1,.769.139,2.254,2.254,0,0,1,1.348,2.888L240.8,37c-.005.011-.005.023-.009.033l-.919,2.517-1.507,4.141a4.163,4.163,0,0,1-.31.719,5.239,5.239,0,0,1-4.427,2.749C233.57,47.16,233.514,47.159,233.458,47.157Zm-87.192,0,.017-.046h0l7.887-21.661h25.7l-.033.091h.013l-1.7,4.665H157.421l-1.359,3.735h19.73l-.027.075h.009l-1.7,4.666H154.335l-.684,1.867-.687,1.885h20.721l-1.7,4.677h0l-.017.046ZM0,47.16l1.157-3.17L7.9,25.453H30.864a2.282,2.282,0,0,1,.77.135,2.366,2.366,0,0,1,1.329,2.976l-2.954,8.091a5.206,5.206,0,0,1-4.881,3.418H7.566l-1.46,4L5,47.113H5l-.017.047ZM9.3,35.33h16.21l1.863-5.119H11.162Zm92.627,11.829L88.466,30.209,82.288,47.159H77.309l.258-.707,7.644-21h6.78l13.49,17.034.473-1.293,5.731-15.741h4.98l-.032.09h.011l-6.534,17.913-1.332,3.658h0l-.017.045Zm-36.188,0,.846-2.321,7.056-19.385h4.979l-.032.09H78.6L70.838,46.82l-.107.294-.017.045ZM54,47.159l-1.055-7.085H40.338l-1.77,4.845-.8,2.194h0l-.017.046H32.774l.667-1.828,7.236-19.879H63.823a2.353,2.353,0,0,1,.773.135A2.252,2.252,0,0,1,66.036,28.1a2.308,2.308,0,0,1-.114.461l-2.954,8.092a5.211,5.211,0,0,1-4.856,3.417l1.047,7.041h-.029l.007.046ZM42.066,35.33h16.4l1.865-5.118h-16.4ZM117.8,47.03a2.255,2.255,0,0,1-1.349-2.888l.548-1.5,5.01-13.769a5.2,5.2,0,0,1,4.885-3.421H147.57l-.032.09h.014l-1.7,4.667H126.515l-4.259,11.679-.2.549h19.337l-1.7,4.677h-.009l-.016.043H118.575l-.064,0A2.337,2.337,0,0,1,117.8,47.03Zm4.938-26.667h-12.8l-.836-2.136h27.264l-.83,2.136Zm0-3.88H108.416l-2.07-5.337.582-.165S118.6,19.293,122.74,6.955c4.13,12.338,15.8,4.025,15.8,4.025l.586.165-2.068,5.337ZM138.959,9.93s6.259-12.117-14.74-4.586l.695-.828S148.3-7.619,139.6,10.071ZM120.567,4.517l.691.828c-21-7.531-14.744,4.586-14.744,4.586l-.634.141C97.174-7.619,120.567,4.517,120.567,4.517Zm.1-2.322L122.74,0l2.071,2.195L122.74,4.384Z" transform="translate(-13298 -118)" fill="#FFFFFF" stroke="rgba(0,0,0,0)" stroke-width="1"/>
  </g>
</svg>
